Screenscraping
…
swk_wiki_section <- html_element(svk2020_html, 
           xpath = '//*[@id="mw-content-text"]/div[1]/table[3]')
head(swk_wiki_section)

$node
<pointer: 0x10cb04d40>

$doc
<pointer: 0x10ca3b250>

elect_tib <- html_table(swk_wiki_section)
elect_tib

# A tibble: 32 × 7
   ``      ``                                      ``    ``    ``    ``    ``   
   <chr>   <chr>                                   <chr> <chr> <chr> <chr> <chr>
 1 "Party" Party                                   Votes %     +/–   Seats +/–  
 2 ""      Ordinary People and Independent Person… 721,… 25.03 +14.… 53    +34  
 3 ""      Direction – Social Democracy            527,… 18.29 –9.99 38    –11  
 4 ""      We Are Family                           237,… 8.24  +1.61 17    +6   
 5 ""      Kotlebists – People's Party Our Slovak… 229,… 7.97  –0.07 17    +3   
 6 ""      Coalition of Progressive Slovakia and … 200,… 6.97  New   0     New  
 7 ""      Freedom and Solidarity[f]               179,… 6.22  –5.88 13    –8   
 8 ""      For the People                          166,… 5.77  New   12    New  
 9 ""      Christian Democratic Movement           134,… 4.65  –0.29 0     0    
10 ""      Hungarian Community Togetherness        112,… 3.91  –0.14 0     0    
# ℹ 22 more rows
…
Let’s extract only the relevant rows and columns

ET <- elect_tib[2:25,2:4]
ET

# A tibble: 24 × 3
   ``                                                                ``    ``   
   <chr>                                                             <chr> <chr>
 1 Ordinary People and Independent Personalities–NOVA–Christian Uni… 721,… 25.03
 2 Direction – Social Democracy                                      527,… 18.29
 3 We Are Family                                                     237,… 8.24 
 4 Kotlebists – People's Party Our Slovakia[e]                       229,… 7.97 
 5 Coalition of Progressive Slovakia and Together – Civic Democracy  200,… 6.97 
 6 Freedom and Solidarity[f]                                         179,… 6.22 
 7 For the People                                                    166,… 5.77 
 8 Christian Democratic Movement                                     134,… 4.65 
 9 Hungarian Community Togetherness                                  112,… 3.91 
10 Slovak National Party                                             91,1… 3.16 
# ℹ 14 more rows

Issue: missing column names

Add variable names

names(ET) <- c("Party","Votes","Percent")
ET

# A tibble: 24 × 3
   Party                                                           Votes Percent
   <chr>                                                           <chr> <chr>  
 1 Ordinary People and Independent Personalities–NOVA–Christian U… 721,… 25.03  
 2 Direction – Social Democracy                                    527,… 18.29  
 3 We Are Family                                                   237,… 8.24   
 4 Kotlebists – People's Party Our Slovakia[e]                     229,… 7.97   
 5 Coalition of Progressive Slovakia and Together – Civic Democra… 200,… 6.97   
 6 Freedom and Solidarity[f]                                       179,… 6.22   
 7 For the People                                                  166,… 5.77   
 8 Christian Democratic Movement                                   134,… 4.65   
 9 Hungarian Community Togetherness                                112,… 3.91   
10 Slovak National Party                                           91,1… 3.16   
# ℹ 14 more rows
…
